﻿{
   "CodeGenerationMode": 2,
   "ContextClassName": "TravelAgencyContext",
   "ContextNamespace": null,
   "DefaultDacpacSchema": null,
   "FilterSchemas": false,
   "IncludeConnectionString": true,
   "ModelNamespace": null,
   "OutputContextPath": null,
   "OutputPath": "Data\/Entity",
   "PreserveCasingWithRegex": true,
   "ProjectRootNamespace": "TourAgencyWPF",
   "Schemas": null,
   "SelectedHandlebarsLanguage": 0,
   "SelectedToBeGenerated": 0,
   "T4TemplatePath": null,
   "Tables": [
      {
         "Name": "[dbo].[AdditionalServices]",
         "ObjectType": 0
      },
      {
         "Name": "[dbo].[Clients]",
         "ObjectType": 0
      },
      {
         "Name": "[dbo].[FeedTypes]",
         "ObjectType": 0
      },
      {
         "Name": "[dbo].[Reviews]",
         "ObjectType": 0
      },
      {
         "Name": "[dbo].[Roles]",
         "ObjectType": 0
      },
      {
         "Name": "[dbo].[Services]",
         "ObjectType": 0
      },
      {
         "Name": "[dbo].[ServiceTypes]",
         "ObjectType": 0
      },
      {
         "Name": "[dbo].[TourBookings]",
         "ObjectType": 0
      },
      {
         "Name": "[dbo].[Tours]",
         "ObjectType": 0
      },
      {
         "Name": "[dbo].[TourServices]",
         "ObjectType": 0
      },
      {
         "Name": "[dbo].[ToursToursTypes]",
         "ObjectType": 0
      },
      {
         "Name": "[dbo].[TourTypes]",
         "ObjectType": 0
      },
      {
         "Name": "[dbo].[Users]",
         "ObjectType": 0
      },
      {
         "Name": "[dbo].[Workers]",
         "ObjectType": 0
      }
   ],
   "UiHint": "mrbomba\\sqlexpress.TravelAgency.dbo",
   "UncountableWords": null,
   "UseBoolPropertiesWithoutDefaultSql": false,
   "UseDatabaseNames": false,
   "UseDateOnlyTimeOnly": false,
   "UseDbContextSplitting": false,
   "UseFluentApiOnly": true,
   "UseHandleBars": false,
   "UseHierarchyId": false,
   "UseInflector": false,
   "UseLegacyPluralizer": false,
   "UseManyToManyEntity": false,
   "UseNoDefaultConstructor": false,
   "UseNoObjectFilter": false,
   "UseNodaTime": false,
   "UseNullableReferences": false,
   "UseSchemaFolders": false,
   "UseSchemaNamespaces": false,
   "UseSpatial": false,
   "UseT4": false
}